epoch;loss;mae;mse;val_loss;val_mae;val_mse
0;9034.5048828125;39.588104248046875;9034.5048828125;0.02427668310701847;0.0870441272854805;0.02427668310701847
1;0.70205157995224;0.20912101864814758;0.70205157995224;0.024392958730459213;0.06639066338539124;0.024392958730459213
2;0.07370355725288391;0.0951993316411972;0.07370355725288391;0.02456856146454811;0.06919419765472412;0.02456856146454811
3;0.04518045857548714;0.08763521164655685;0.04518045857548714;0.02441793866455555;0.07830342650413513;0.02441793866455555
4;0.031120669096708298;0.08513244241476059;0.031120669096708298;0.024613458663225174;0.08887796849012375;0.024613458663225174
5;0.04900089278817177;0.08689053356647491;0.04900089278817177;0.024594614282250404;0.08018449693918228;0.024594614282250404
6;0.041436538100242615;0.0853598564863205;0.041436538100242615;0.024428987875580788;0.0846845954656601;0.024428987875580788
7;0.02977457456290722;0.08345720916986465;0.02977457456290722;0.024323105812072754;0.07782541960477829;0.024323105812072754
8;0.025747224688529968;0.08274702727794647;0.025747224688529968;0.024374816566705704;0.07271596044301987;0.024374816566705704
9;0.027263300493359566;0.08304974436759949;0.027263300493359566;0.024382732808589935;0.07424327731132507;0.024382732808589935
10;0.025142479687929153;0.08189317584037781;0.025142479687929153;0.024491174146533012;0.07294651120901108;0.024491174146533012
11;0.027540626004338264;0.0822635218501091;0.027540626004338264;0.02441261149942875;0.07903499156236649;0.02441261149942875
12;0.025866704061627388;0.08218337595462799;0.025866704061627388;0.02438850700855255;0.07471256703138351;0.02438850700855255
13;0.027860047295689583;0.08221394568681717;0.027860047295689583;0.024457018822431564;0.07163094729185104;0.024457018822431564
14;0.025027679279446602;0.0813177078962326;0.025027679279446602;0.024140357971191406;0.07833239436149597;0.024140357971191406
15;0.02398393675684929;0.0816742554306984;0.02398393675684929;0.024322858080267906;0.06972786039113998;0.024322858080267906
16;0.02627405896782875;0.08249368518590927;0.02627405896782875;0.024309327825903893;0.07630973309278488;0.024309327825903893
17;0.024963196367025375;0.08177613466978073;0.024963196367025375;0.02453547529876232;0.06982418149709702;0.02453547529876232
18;0.02402150072157383;0.08104258030653;0.02402150072157383;0.024270353838801384;0.08022406697273254;0.024270353838801384
19;0.024243546649813652;0.08155091851949692;0.024243546649813652;0.024368392303586006;0.0745898112654686;0.024368392303586006
20;0.023931456729769707;0.08131633698940277;0.023931456729769707;0.024453477934002876;0.07170747220516205;0.024453477934002876
21;0.023604068905115128;0.08076859265565872;0.023604068905115128;0.024380380287766457;0.08247056603431702;0.024380380287766457
22;0.023759912699460983;0.08147689700126648;0.023759912699460983;0.024448875337839127;0.07124053686857224;0.024448875337839127
23;0.023951826617121696;0.0811825543642044;0.023951826617121696;0.024376297369599342;0.07636236399412155;0.024376297369599342
24;0.023903222754597664;0.08157987892627716;0.023903222754597664;0.024378884583711624;0.0747959092259407;0.024378884583711624
25;0.024080730974674225;0.08156157284975052;0.024080730974674225;0.024578003212809563;0.06919091194868088;0.024578003212809563
26;0.02397354692220688;0.08118622750043869;0.02397354692220688;0.02466605044901371;0.0655817911028862;0.02466605044901371
27;0.02412882260978222;0.08136343210935593;0.02412882260978222;0.024555744603276253;0.06833510100841522;0.024555744603276253
28;0.024113116785883904;0.0815575122833252;0.024113116785883904;0.024499796330928802;0.07214993238449097;0.024499796330928802
29;0.023565126582980156;0.08098848164081573;0.023565126582980156;0.024528294801712036;0.06966959685087204;0.024528294801712036
30;0.02375253103673458;0.0811125636100769;0.02375253103673458;0.024439070373773575;0.07429801672697067;0.024439070373773575
31;0.02354178950190544;0.0811472088098526;0.02354178950190544;0.02452703006565571;0.07678703218698502;0.02452703006565571
0;10663.486328125;42.75734329223633;10663.486328125;0.029544780030846596;0.13501912355422974;0.029544780030846596
1;0.8433523774147034;0.21500304341316223;0.8433523774147034;0.02490551955997944;0.09290628135204315;0.02490551955997944
2;0.06728889793157578;0.09395606070756912;0.06728889793157578;0.02542864717543125;0.10113117098808289;0.02542864717543125
3;0.050433021038770676;0.08936326950788498;0.050433021038770676;0.025108633562922478;0.09603087604045868;0.025108633562922478
4;0.0719095766544342;0.08735915273427963;0.0719095766544342;0.025417638942599297;0.10028892010450363;0.025417638942599297
5;0.034078482538461685;0.08381863683462143;0.034078482538461685;0.02483513206243515;0.09132210165262222;0.02483513206243515
6;0.03597318008542061;0.08431079238653183;0.03597318008542061;0.024600710719823837;0.08428838104009628;0.024600710719823837
7;0.02823718450963497;0.08268117159605026;0.02823718450963497;0.02472289279103279;0.08677434921264648;0.02472289279103279
8;0.026469267904758453;0.08284694701433182;0.026469267904758453;0.024738121777772903;0.08785005658864975;0.024738121777772903
9;0.024772118777036667;0.08234113454818726;0.024772118777036667;0.024684833362698555;0.08255376666784286;0.024684833362698555
10;0.028679851442575455;0.08236934244632721;0.028679851442575455;0.024679820984601974;0.08621089905500412;0.024679820984601974
11;0.02413942478597164;0.08148309588432312;0.02413942478597164;0.02479885332286358;0.08916639536619186;0.02479885332286358
12;0.024424057453870773;0.08164850622415543;0.024424057453870773;0.024676961824297905;0.08134477585554123;0.024676961824297905
13;0.024311142042279243;0.08125735819339752;0.024311142042279243;0.024666883051395416;0.08462123572826385;0.024666883051395416
14;0.026259878650307655;0.08215559273958206;0.026259878650307655;0.024708133190870285;0.08401557058095932;0.024708133190870285
15;0.02400248683989048;0.08138640224933624;0.02400248683989048;0.0247806329280138;0.08652391284704208;0.0247806329280138
16;0.02992858551442623;0.08257950842380524;0.02992858551442623;0.024639852344989777;0.08051668107509613;0.024639852344989777
17;0.025015270337462425;0.08180765807628632;0.025015270337462425;0.024679888039827347;0.08243873715400696;0.024679888039827347
18;0.026379480957984924;0.08237621933221817;0.026379480957984924;0.024666978046298027;0.08450686931610107;0.024666978046298027
19;0.024633046239614487;0.081789530813694;0.024633046239614487;0.02459273487329483;0.07775144279003143;0.02459273487329483
20;0.024050047621130943;0.08101730793714523;0.024050047621130943;0.02464219368994236;0.0844692513346672;0.02464219368994236
21;0.025920169427990913;0.08204968273639679;0.025920169427990913;0.0246454868465662;0.08577791601419449;0.0246454868465662
22;0.02414628118276596;0.08153107017278671;0.02414628118276596;0.024628542363643646;0.08278048038482666;0.024628542363643646
23;0.025207167491316795;0.08190412819385529;0.025207167491316795;0.024644089862704277;0.07883550971746445;0.024644089862704277
24;0.024697566404938698;0.08156923949718475;0.024697566404938698;0.02461577020585537;0.0786554366350174;0.02461577020585537
25;0.0255239550024271;0.08129296451807022;0.0255239550024271;0.024703089147806168;0.08302251994609833;0.024703089147806168
26;0.024736111983656883;0.0815204530954361;0.024736111983656883;0.024744413793087006;0.08809905499219894;0.024744413793087006
27;0.024337084963917732;0.08121731132268906;0.024337084963917732;0.02466055192053318;0.08231691271066666;0.02466055192053318
28;0.024401769042015076;0.08131850510835648;0.024401769042015076;0.024666156619787216;0.08308621495962143;0.024666156619787216
29;0.024158304557204247;0.08142799884080887;0.024158304557204247;0.0246269591152668;0.0774155706167221;0.0246269591152668
30;0.023541735485196114;0.08052371442317963;0.023541735485196114;0.02458413876593113;0.08187196403741837;0.02458413876593113
31;0.02363147959113121;0.08122025430202484;0.02363147959113121;0.024579813703894615;0.08156220614910126;0.024579813703894615
32;0.023517310619354248;0.08093148469924927;0.023517310619354248;0.02459326758980751;0.08339032530784607;0.02459326758980751
33;0.023488420993089676;0.080832839012146;0.023488420993089676;0.024639815092086792;0.08433235436677933;0.024639815092086792
34;0.026037711650133133;0.08150660991668701;0.026037711650133133;0.024647368118166924;0.08033809065818787;0.024647368118166924
35;0.024250341579318047;0.08112107962369919;0.024250341579318047;0.024631502106785774;0.0810479000210762;0.024631502106785774
36;0.023739531636238098;0.08112690597772598;0.023739531636238098;0.024616003036499023;0.08197470009326935;0.024616003036499023
37;0.023501230403780937;0.08066004514694214;0.023501230403780937;0.024670753628015518;0.08437614887952805;0.024670753628015518
38;0.025632712990045547;0.0816955640912056;0.025632712990045547;0.024644823744893074;0.0820872038602829;0.024644823744893074
39;0.023558413609862328;0.08072786033153534;0.023558413609862328;0.024696392938494682;0.08620325475931168;0.024696392938494682
40;0.02369624562561512;0.08122454583644867;0.02369624562561512;0.02461390197277069;0.08250439912080765;0.02461390197277069
41;0.023676574230194092;0.08135773241519928;0.023676574230194092;0.02465813048183918;0.07923422008752823;0.02465813048183918
42;0.023703541606664658;0.08068490028381348;0.023703541606664658;0.024638524278998375;0.08117149770259857;0.024638524278998375
43;0.023572804406285286;0.08083438128232956;0.023572804406285286;0.02463001012802124;0.0801398754119873;0.02463001012802124
44;0.02359698712825775;0.08085332810878754;0.02359698712825775;0.02463422529399395;0.07902925461530685;0.02463422529399395
45;0.02441350370645523;0.08083561807870865;0.02441350370645523;0.02464103326201439;0.08453398942947388;0.02464103326201439
46;0.023506266996264458;0.08124683052301407;0.023506266996264458;0.024627281352877617;0.07938438653945923;0.024627281352877617
47;0.024308089166879654;0.08041254431009293;0.024308089166879654;0.0246967114508152;0.08649998903274536;0.0246967114508152
48;0.02360229752957821;0.08155990391969681;0.02360229752957821;0.024631928652524948;0.08224710077047348;0.024631928652524948
49;0.024440834298729897;0.0809682086110115;0.024440834298729897;0.024646973237395287;0.08102483302354813;0.024646973237395287
50;0.0270320363342762;0.08186404407024384;0.0270320363342762;0.024633612483739853;0.07928618788719177;0.024633612483739853
51;0.023485640063881874;0.08046425133943558;0.023485640063881874;0.024678952991962433;0.08366949111223221;0.024678952991962433
52;0.023507509380578995;0.08122505247592926;0.023507509380578995;0.02469809353351593;0.08140575885772705;0.02469809353351593
53;0.023823795840144157;0.08084914088249207;0.023823795840144157;0.024737967178225517;0.08453149348497391;0.024737967178225517
54;0.026176320388913155;0.08157180994749069;0.026176320388913155;0.02471146360039711;0.08366072177886963;0.02471146360039711
55;0.024096248671412468;0.08116191625595093;0.024096248671412468;0.02467966452240944;0.07960215210914612;0.02467966452240944
56;0.02847875840961933;0.08093194663524628;0.02847875840961933;0.024677341803908348;0.08146389573812485;0.024677341803908348
57;0.023478079587221146;0.08109854906797409;0.023478079587221146;0.024663982912898064;0.07984190434217453;0.024663982912898064
58;0.023622851818799973;0.08100977540016174;0.023622851818799973;0.024659546092152596;0.08119302988052368;0.024659546092152596
59;0.023477312177419662;0.08070897310972214;0.023477312177419662;0.0246654711663723;0.07953064143657684;0.0246654711663723
60;0.023628555238246918;0.08096256852149963;0.023628555238246918;0.024656934663653374;0.08009731769561768;0.024656934663653374
0;6776.18701171875;34.90180206298828;6776.18701171875;0.026924794539809227;0.05062995105981827;0.026924794539809227
1;0.47821593284606934;0.19156239926815033;0.47821593284606934;0.024869846180081367;0.07560441642999649;0.024869846180081367
2;0.04739650338888168;0.09136812388896942;0.04739650338888168;0.024768562987446785;0.07974577695131302;0.024768562987446785
3;0.03324703499674797;0.08618589490652084;0.03324703499674797;0.024851864203810692;0.07075469195842743;0.024851864203810692
4;0.03437279164791107;0.08456915616989136;0.03437279164791107;0.024684134870767593;0.07666371017694473;0.024684134870767593
5;0.02736050635576248;0.08347046375274658;0.02736050635576248;0.024671075865626335;0.07676899433135986;0.024671075865626335
6;0.026064803823828697;0.08266115933656693;0.026064803823828697;0.02465701289474964;0.07925038039684296;0.02465701289474964
7;0.025503110140562057;0.08218833804130554;0.025503110140562057;0.024672847241163254;0.08189978450536728;0.024672847241163254
8;0.024992290884256363;0.082081638276577;0.024992290884256363;0.02472531981766224;0.08493829518556595;0.02472531981766224
9;0.02724570780992508;0.08301408588886261;0.02724570780992508;0.02468274161219597;0.07984986901283264;0.02468274161219597
10;0.024443060159683228;0.08154278248548508;0.024443060159683228;0.02471354976296425;0.0765223354101181;0.02471354976296425
11;0.024641266092658043;0.08188129961490631;0.024641266092658043;0.024771735072135925;0.07357113063335419;0.024771735072135925
12;0.024009667336940765;0.0812932699918747;0.024009667336940765;0.02478037215769291;0.0720507800579071;0.02478037215769291
13;0.025800028815865517;0.081957146525383;0.025800028815865517;0.02461056038737297;0.07745504379272461;0.02461056038737297
14;0.02352280355989933;0.08094699680805206;0.02352280355989933;0.024687815457582474;0.08312593400478363;0.024687815457582474
15;0.0242783036082983;0.08174438774585724;0.0242783036082983;0.0246707983314991;0.08218399435281754;0.0246707983314991
16;0.023783639073371887;0.08128102123737335;0.023783639073371887;0.024690980091691017;0.07719811052083969;0.024690980091691017
17;0.025554614141583443;0.08207229524850845;0.025554614141583443;0.02472878247499466;0.07286175340414047;0.02472878247499466
18;0.023491203784942627;0.08083527535200119;0.023491203784942627;0.024758191779255867;0.07422255724668503;0.024758191779255867
19;0.02516036108136177;0.08141355216503143;0.02516036108136177;0.024679988622665405;0.07569178938865662;0.024679988622665405
20;0.024500297382473946;0.08108214288949966;0.024500297382473946;0.02470235899090767;0.0762726292014122;0.02470235899090767
21;0.023877661675214767;0.08144765347242355;0.023877661675214767;0.02466777339577675;0.07847962528467178;0.02466777339577675
22;0.023797860369086266;0.08124414831399918;0.023797860369086266;0.02465820498764515;0.07906252145767212;0.02465820498764515
23;0.024754570797085762;0.08161251991987228;0.024754570797085762;0.024651631712913513;0.0805610716342926;0.024651631712913513
24;0.023916859179735184;0.0819282978773117;0.023916859179735184;0.024677788838744164;0.07601316273212433;0.024677788838744164
25;0.02367389015853405;0.08105937391519547;0.02367389015853405;0.02467167191207409;0.07787811011075974;0.02467167191207409
26;0.025143615901470184;0.08137055486440659;0.025143615901470184;0.024891143664717674;0.06935043632984161;0.024891143664717674
27;0.023837385699152946;0.08110394328832626;0.023837385699152946;0.024796845391392708;0.07142370939254761;0.024796845391392708
28;0.02363443560898304;0.08102387189865112;0.02363443560898304;0.024676598608493805;0.07551583647727966;0.024676598608493805
29;0.023692956194281578;0.08103557676076889;0.023692956194281578;0.024662593379616737;0.07937031984329224;0.024662593379616737
30;0.023627031594514847;0.08107911050319672;0.023627031594514847;0.024617495015263557;0.07676499336957932;0.024617495015263557
31;0.024463875219225883;0.08112833648920059;0.024463875219225883;0.02466733008623123;0.07565151154994965;0.02466733008623123
32;0.024396637454628944;0.0813189223408699;0.024396637454628944;0.0246756412088871;0.07658376544713974;0.0246756412088871
33;0.02365470863878727;0.08095204830169678;0.02365470863878727;0.02464362606406212;0.08338834345340729;0.02464362606406212
34;0.02397112548351288;0.08164804428815842;0.02397112548351288;0.024714985862374306;0.08687571436166763;0.024714985862374306
35;0.02358129620552063;0.08146429806947708;0.02358129620552063;0.024689413607120514;0.07423246651887894;0.024689413607120514
36;0.023649388924241066;0.08084127306938171;0.023649388924241066;0.024656688794493675;0.07815999537706375;0.024656688794493675
37;0.024591397494077682;0.08166846632957458;0.024591397494077682;0.024620069190859795;0.07835067063570023;0.024620069190859795
38;0.023875612765550613;0.08109298348426819;0.023875612765550613;0.024673832580447197;0.08275681734085083;0.024673832580447197
39;0.02368207834661007;0.08096085488796234;0.02368207834661007;0.024699024856090546;0.08530324697494507;0.024699024856090546
40;0.023493608459830284;0.08131556212902069;0.023493608459830284;0.02467981167137623;0.07318449765443802;0.02467981167137623
41;0.023630447685718536;0.08092967420816422;0.023630447685718536;0.024669839069247246;0.07700540870428085;0.024669839069247246
42;0.023516671732068062;0.08101974427700043;0.023516671732068062;0.024790767580270767;0.07124101370573044;0.024790767580270767
43;0.02351309545338154;0.08084752410650253;0.02351309545338154;0.02462800219655037;0.0807795375585556;0.02462800219655037
44;0.023603741079568863;0.08102304488420486;0.023603741079568863;0.024642180651426315;0.07933030277490616;0.024642180651426315
45;0.023770391941070557;0.08106677979230881;0.023770391941070557;0.02469046227633953;0.0738443061709404;0.02469046227633953
46;0.023530609905719757;0.08094879239797592;0.023530609905719757;0.02469530515372753;0.07342714071273804;0.02469530515372753
47;0.0238274447619915;0.08069923520088196;0.0238274447619915;0.024622555822134018;0.0798725038766861;0.024622555822134018
48;0.02365407906472683;0.08140116930007935;0.02365407906472683;0.024799149483442307;0.07046180218458176;0.024799149483442307
49;0.023551926016807556;0.08040359616279602;0.023551926016807556;0.024630500003695488;0.07985134422779083;0.024630500003695488
50;0.02349689044058323;0.08085694909095764;0.02349689044058323;0.024709492921829224;0.07464686781167984;0.024709492921829224
51;0.023527147248387337;0.08068973571062088;0.023527147248387337;0.02471393533051014;0.07528907805681229;0.02471393533051014
52;0.02348214015364647;0.08022940158843994;0.02348214015364647;0.024645382538437843;0.084441639482975;0.024645382538437843
53;0.028648627921938896;0.08183334022760391;0.028648627921938896;0.024631688371300697;0.0794905573129654;0.024631688371300697
54;0.023475315421819687;0.08122353255748749;0.023475315421819687;0.02470569871366024;0.07647816836833954;0.02470569871366024
55;0.023636048659682274;0.08108652383089066;0.023636048659682274;0.02461944706737995;0.08063627779483795;0.02461944706737995
56;0.0235728919506073;0.08079934865236282;0.0235728919506073;0.024666637182235718;0.08458414673805237;0.024666637182235718
57;0.023716146126389503;0.08147113770246506;0.023716146126389503;0.024643490090966225;0.07957620918750763;0.024643490090966225
58;0.023625265806913376;0.08094678074121475;0.023625265806913376;0.024611756205558777;0.07979659736156464;0.024611756205558777
59;0.023488419130444527;0.08054955303668976;0.023488419130444527;0.024634266272187233;0.08227800577878952;0.024634266272187233
60;0.02350233867764473;0.08095606416463852;0.02350233867764473;0.024645695462822914;0.07923246920108795;0.024645695462822914
61;0.023559177294373512;0.08119235932826996;0.023559177294373512;0.024655146524310112;0.07854623347520828;0.024655146524310112
62;0.023787304759025574;0.08074542135000229;0.023787304759025574;0.02464708499610424;0.08192919939756393;0.02464708499610424
63;0.02350018173456192;0.0807139053940773;0.02350018173456192;0.024674566462635994;0.07750333845615387;0.024674566462635994
64;0.023657554760575294;0.08074238896369934;0.023657554760575294;0.024592457339167595;0.08508389443159103;0.024592457339167595
0;7835.98974609375;36.927642822265625;7835.98974609375;0.032577034085989;0.08822865784168243;0.032577034085989
1;0.5657436847686768;0.21638481318950653;0.5657436847686768;0.024706844240427017;0.0735178291797638;0.024706844240427017
2;0.0367007814347744;0.08852500468492508;0.0367007814347744;0.024629173800349236;0.07300988584756851;0.024629173800349236
3;0.03101135604083538;0.08502785116434097;0.03101135604083538;0.024647951126098633;0.08120034635066986;0.024647951126098633
4;0.026277607306838036;0.08323944360017776;0.026277607306838036;0.02486547827720642;0.06640447676181793;0.02486547827720642
5;0.03008105978369713;0.08278018981218338;0.03008105978369713;0.02460528165102005;0.0820162445306778;0.02460528165102005
6;0.02559569850564003;0.0823940858244896;0.02559569850564003;0.024777088314294815;0.08920494467020035;0.024777088314294815
7;0.02710716985166073;0.08243823051452637;0.02710716985166073;0.024555357173085213;0.08102554827928543;0.024555357173085213
8;0.024293167516589165;0.0819675400853157;0.024293167516589165;0.024725403636693954;0.08013910800218582;0.024725403636693954
9;0.025675704702734947;0.08193343132734299;0.025675704702734947;0.024771349504590034;0.08526423573493958;0.024771349504590034
10;0.024542436003684998;0.08207917213439941;0.024542436003684998;0.024712637066841125;0.07728218287229538;0.024712637066841125
11;0.023779461160302162;0.08097609877586365;0.023779461160302162;0.02476506493985653;0.08659687638282776;0.02476506493985653
12;0.026595614850521088;0.08205112814903259;0.026595614850521088;0.024730047211050987;0.07795076817274094;0.024730047211050987
13;0.02475319616496563;0.08146409690380096;0.02475319616496563;0.02489176020026207;0.08920183777809143;0.02489176020026207
14;0.025090618059039116;0.08205929398536682;0.025090618059039116;0.024792948737740517;0.08003635704517365;0.024792948737740517
15;0.02619274891912937;0.08162634074687958;0.02619274891912937;0.024779167026281357;0.08110310137271881;0.024779167026281357
16;0.023606738075613976;0.08095299452543259;0.023606738075613976;0.0247779730707407;0.08008953928947449;0.0247779730707407
17;0.024891041219234467;0.08129405230283737;0.024891041219234467;0.02470289170742035;0.0819794163107872;0.02470289170742035
18;0.02640574425458908;0.08180561661720276;0.02640574425458908;0.024760792031884193;0.07532692700624466;0.024760792031884193
19;0.02680181711912155;0.08137767016887665;0.02680181711912155;0.024738673120737076;0.07664480805397034;0.024738673120737076
20;0.023762108758091927;0.08113564550876617;0.023762108758091927;0.02466658689081669;0.07716518640518188;0.02466658689081669
21;0.023857194930315018;0.0814063549041748;0.023857194930315018;0.02477136254310608;0.07299056649208069;0.02477136254310608
22;0.023590562865138054;0.08108079433441162;0.023590562865138054;0.02474966272711754;0.07664521038532257;0.02474966272711754
23;0.023660795763134956;0.08078419417142868;0.023660795763134956;0.02478836663067341;0.08625035732984543;0.02478836663067341
24;0.023701341822743416;0.08135399967432022;0.023701341822743416;0.02471141703426838;0.08006362617015839;0.02471141703426838
25;0.0241119135171175;0.08090565353631973;0.0241119135171175;0.024716829881072044;0.08497506380081177;0.024716829881072044
26;0.02552786096930504;0.08206302672624588;0.02552786096930504;0.02467113360762596;0.08214350044727325;0.02467113360762596
27;0.023508531972765923;0.08099532872438431;0.023508531972765923;0.02468661405146122;0.07910066097974777;0.02468661405146122
28;0.023808002471923828;0.08081527799367905;0.023808002471923828;0.02475125342607498;0.08656317740678787;0.02475125342607498
29;0.023526940494775772;0.08121856302022934;0.023526940494775772;0.024687685072422028;0.0769977942109108;0.024687685072422028
30;0.023621562868356705;0.08081319183111191;0.023621562868356705;0.024712050333619118;0.08182067424058914;0.024712050333619118
31;0.02362826280295849;0.08155215531587601;0.02362826280295849;0.024758264422416687;0.07750704139471054;0.024758264422416687
32;0.02355100028216839;0.0808912143111229;0.02355100028216839;0.024715151637792587;0.08022414147853851;0.024715151637792587
33;0.023777468129992485;0.08072812855243683;0.023777468129992485;0.024713467806577682;0.08179750293493271;0.024713467806577682
34;0.023482151329517365;0.08090795576572418;0.023482151329517365;0.02472323179244995;0.08090126514434814;0.02472323179244995
35;0.023819969967007637;0.0811041072010994;0.023819969967007637;0.024706194177269936;0.079414501786232;0.024706194177269936
36;0.02390255033969879;0.08059664815664291;0.02390255033969879;0.024747444316744804;0.0862688422203064;0.024747444316744804
37;0.023876791819930077;0.08157480508089066;0.023876791819930077;0.02473732829093933;0.08055514842271805;0.02473732829093933
38;0.023570047691464424;0.08103533089160919;0.023570047691464424;0.024727365002036095;0.08014991134405136;0.024727365002036095
39;0.025047749280929565;0.08151067048311234;0.025047749280929565;0.024696145206689835;0.0782681405544281;0.024696145206689835
40;0.024329349398612976;0.08103456348180771;0.024329349398612976;0.024717820808291435;0.07792562246322632;0.024717820808291435
41;0.0235474593937397;0.08092149347066879;0.0235474593937397;0.024685075506567955;0.07558343559503555;0.024685075506567955
42;0.023911330848932266;0.08092495799064636;0.023911330848932266;0.024685246869921684;0.07643390446901321;0.024685246869921684
43;0.023666074499487877;0.08046428859233856;0.023666074499487877;0.02466367557644844;0.08077885955572128;0.02466367557644844
44;0.023572204634547234;0.08138074725866318;0.023572204634547234;0.024690154939889908;0.07614454627037048;0.024690154939889908
45;0.023548342287540436;0.08062615245580673;0.023548342287540436;0.02463114820420742;0.08118562400341034;0.02463114820420742
46;0.02411169558763504;0.08074906468391418;0.02411169558763504;0.024654466658830643;0.08319638669490814;0.024654466658830643
47;0.02350463531911373;0.08072999119758606;0.02350463531911373;0.024734094738960266;0.08533567935228348;0.024734094738960266
48;0.02397140860557556;0.0812540277838707;0.02397140860557556;0.02466638758778572;0.08365330100059509;0.02466638758778572
49;0.025281796231865883;0.0820690393447876;0.025281796231865883;0.024665556848049164;0.07948150485754013;0.024665556848049164
50;0.02351221814751625;0.08039866387844086;0.02351221814751625;0.024679886177182198;0.08213748782873154;0.024679886177182198
51;0.023508887737989426;0.08107499778270721;0.023508887737989426;0.02466885931789875;0.07879957556724548;0.02466885931789875
52;0.02508660778403282;0.0812658965587616;0.02508660778403282;0.024665502831339836;0.08292636275291443;0.024665502831339836
53;0.023521292954683304;0.08058533817529678;0.023521292954683304;0.02465232089161873;0.08336041867733002;0.02465232089161873
54;0.02450735494494438;0.08156919479370117;0.02450735494494438;0.024690253660082817;0.08064024150371552;0.024690253660082817
55;0.024062784388661385;0.08097784221172333;0.024062784388661385;0.024704940617084503;0.08206811547279358;0.024704940617084503
56;0.023537900298833847;0.08136855810880661;0.023537900298833847;0.024673836305737495;0.07731317728757858;0.024673836305737495
57;0.023506350815296173;0.0803653672337532;0.023506350815296173;0.024646224454045296;0.08024001121520996;0.024646224454045296
58;0.023845341056585312;0.08095943182706833;0.023845341056585312;0.024661274626851082;0.08285984396934509;0.024661274626851082
59;0.02348153293132782;0.08111853152513504;0.02348153293132782;0.024644825607538223;0.078667551279068;0.024644825607538223
60;0.02349069155752659;0.08082649111747742;0.02349069155752659;0.02464889921247959;0.08046533167362213;0.02464889921247959
61;0.02349972352385521;0.081085704267025;0.02349972352385521;0.02467884123325348;0.0782380998134613;0.02467884123325348
62;0.023909728974103928;0.08042103797197342;0.023909728974103928;0.024649016559123993;0.08275263756513596;0.024649016559123993
63;0.02344215102493763;0.08121290802955627;0.02344215102493763;0.02464429847896099;0.07757250219583511;0.02464429847896099
64;0.023533737286925316;0.08105900883674622;0.023533737286925316;0.02464565820991993;0.0784127488732338;0.02464565820991993
65;0.023460611701011658;0.08052781969308853;0.023460611701011658;0.02471585012972355;0.08669302612543106;0.02471585012972355
66;0.023488961160182953;0.08074738830327988;0.023488961160182953;0.024644730612635612;0.08266937732696533;0.024644730612635612
67;0.023471029475331306;0.08103058487176895;0.023471029475331306;0.024643171578645706;0.07736619561910629;0.024643171578645706
68;0.02347841113805771;0.08076243102550507;0.02347841113805771;0.02464468404650688;0.07925121486186981;0.02464468404650688
69;0.023480035364627838;0.07987239956855774;0.023480035364627838;0.024728946387767792;0.08737548440694809;0.024728946387767792
70;0.023472100496292114;0.08139996230602264;0.023472100496292114;0.024672728031873703;0.07582943141460419;0.024672728031873703
71;0.02347775362432003;0.08008851110935211;0.02347775362432003;0.024664295837283134;0.08282823860645294;0.024664295837283134
72;0.023497173562645912;0.08098196983337402;0.023497173562645912;0.024657117202878;0.08080530911684036;0.024657117202878
73;0.023538019508123398;0.08086077868938446;0.023538019508123398;0.024656688794493675;0.08083067834377289;0.024656688794493675
74;0.02358916588127613;0.08076486736536026;0.02358916588127613;0.024652540683746338;0.08165351301431656;0.024652540683746338
75;0.023503273725509644;0.08123310655355453;0.023503273725509644;0.02463865652680397;0.08026712387800217;0.02463865652680397
76;0.023477891460061073;0.08075828105211258;0.023477891460061073;0.0246538408100605;0.07931932806968689;0.0246538408100605
77;0.02354155108332634;0.08065478503704071;0.02354155108332634;0.024660199880599976;0.08321235328912735;0.024660199880599976
78;0.02372233383357525;0.08105506747961044;0.02372233383357525;0.024663319811224937;0.08266527950763702;0.024663319811224937
0;4911.95458984375;54.521202087402344;4911.95458984375;0.032099802047014236;0.0919269397854805;0.032099802047014236
1;907.2359619140625;24.326950073242188;907.2359619140625;0.0298751313239336;0.08104570209980011;0.0298751313239336
2;253.48666381835938;11.663331985473633;253.48666381835938;0.028535986319184303;0.07862497866153717;0.028535986319184303
3;109.81068420410156;8.41691780090332;109.81068420410156;0.026067830622196198;0.07182186096906662;0.026067830622196198
4;39.52190017700195;5.161040306091309;39.52190017700195;0.02519863285124302;0.0689924880862236;0.02519863285124302
5;14.779842376708984;2.997422456741333;14.779842376708984;0.024532504379749298;0.06796794384717941;0.024532504379749298
6;5.4618024826049805;1.829236626625061;5.4618024826049805;0.02479086071252823;0.06633985787630081;0.02479086071252823
7;0.9458796381950378;0.5999854207038879;0.9458796381950378;0.025738175958395004;0.06652121990919113;0.025738175958395004
8;0.058997802436351776;0.11513936519622803;0.058997802436351776;0.024107299745082855;0.0667802169919014;0.024107299745082855
9;0.023852581158280373;0.08191511034965515;0.023852581158280373;0.024813571944832802;0.06431742757558823;0.024813571944832802
10;0.02401675470173359;0.08221708983182907;0.02401675470173359;0.024961387738585472;0.06323344260454178;0.024961387738585472
11;0.023576760664582253;0.08149651437997818;0.023576760664582253;0.024661580100655556;0.06410542875528336;0.024661580100655556
12;0.023442015051841736;0.08110006153583527;0.023442015051841736;0.024381114169955254;0.06541603058576584;0.024381114169955254
13;0.023409392684698105;0.08039333671331406;0.023409392684698105;0.023602286353707314;0.07244791090488434;0.023602286353707314
14;0.023382607847452164;0.08155471831560135;0.023382607847452164;0.02432195469737053;0.06470195949077606;0.02432195469737053
15;0.023351045325398445;0.08111151307821274;0.023351045325398445;0.024220595136284828;0.06496330350637436;0.024220595136284828
16;0.023146478459239006;0.08048723638057709;0.023146478459239006;0.02393420971930027;0.0668855756521225;0.02393420971930027
17;0.02332386188209057;0.08069417625665665;0.02332386188209057;0.02369486726820469;0.07029154896736145;0.02369486726820469
18;0.023127740249037743;0.08027248084545135;0.023127740249037743;0.023838678374886513;0.06775496900081635;0.023838678374886513
19;0.02308647893369198;0.079580157995224;0.02308647893369198;0.023555930703878403;0.07330839335918427;0.023555930703878403
20;0.023112226277589798;0.08083456754684448;0.023112226277589798;0.02383035607635975;0.06834416091442108;0.02383035607635975
21;0.02299572341144085;0.08002635091543198;0.02299572341144085;0.024033162742853165;0.06588389724493027;0.024033162742853165
22;0.02320002391934395;0.07967402786016464;0.02320002391934395;0.02347157523036003;0.07649652659893036;0.02347157523036003
23;0.022898701950907707;0.08043215423822403;0.022898701950907707;0.023475823923945427;0.07213369756937027;0.023475823923945427
24;0.022895386442542076;0.07946854829788208;0.022895386442542076;0.023404493927955627;0.07737819105386734;0.023404493927955627
25;0.022921569645404816;0.07977180927991867;0.022921569645404816;0.023430975154042244;0.0815669521689415;0.023430975154042244
26;0.022813186049461365;0.07995199412107468;0.022813186049461365;0.023547496646642685;0.08697301149368286;0.023547496646642685
27;0.022759266197681427;0.08020279556512833;0.022759266197681427;0.023325184360146523;0.07921591401100159;0.023325184360146523
28;0.022784166038036346;0.07972067594528198;0.022784166038036346;0.023362813517451286;0.07412129640579224;0.023362813517451286
29;0.02268017642199993;0.07953665405511856;0.02268017642199993;0.023348433896899223;0.07562631368637085;0.023348433896899223
30;0.022737758234143257;0.07874539494514465;0.022737758234143257;0.02344934269785881;0.08305661380290985;0.02344934269785881
31;0.022839801385998726;0.0794585794210434;0.022839801385998726;0.023582031950354576;0.08733479678630829;0.023582031950354576
32;0.022751037031412125;0.07917327433824539;0.022751037031412125;0.023580757901072502;0.08749105781316757;0.023580757901072502
33;0.022628329694271088;0.07920251041650772;0.022628329694271088;0.02363976649940014;0.08946648985147476;0.02363976649940014
34;0.022621843963861465;0.07897443324327469;0.022621843963861465;0.024043140932917595;0.09677816182374954;0.024043140932917595
35;0.02253798581659794;0.07942330092191696;0.02253798581659794;0.02361493930220604;0.08927852660417557;0.02361493930220604
36;0.022582322359085083;0.07798805087804794;0.022582322359085083;0.024409595876932144;0.10199280828237534;0.024409595876932144
37;0.02255624160170555;0.07956234365701675;0.02255624160170555;0.02411568909883499;0.0981602668762207;0.02411568909883499
38;0.02250894159078598;0.07869484275579453;0.02250894159078598;0.02435077726840973;0.10144820064306259;0.02435077726840973
39;0.0224554892629385;0.07841446250677109;0.0224554892629385;0.024486634880304337;0.10333677381277084;0.024486634880304337
40;0.022396456450223923;0.07863760739564896;0.022396456450223923;0.02418547309935093;0.09971987456083298;0.02418547309935093
41;0.022481119260191917;0.07821359485387802;0.022481119260191917;0.02413386106491089;0.09910865873098373;0.02413386106491089
42;0.02246256358921528;0.07748345285654068;0.02246256358921528;0.02541508898139;0.11257551610469818;0.02541508898139
43;0.022314714267849922;0.07840000092983246;0.022314714267849922;0.02526160515844822;0.11145671457052231;0.02526160515844822
44;0.022391056641936302;0.07789067924022675;0.022391056641936302;0.024598078802227974;0.10512098670005798;0.024598078802227974
45;0.022310446947813034;0.07716669887304306;0.022310446947813034;0.024786517024040222;0.1071067675948143;0.024786517024040222
46;0.02223959192633629;0.0775025263428688;0.02223959192633629;0.025052348151803017;0.10968124866485596;0.025052348151803017
47;0.022144805639982224;0.07713063061237335;0.022144805639982224;0.02445819415152073;0.10377439856529236;0.02445819415152073
48;0.02223420888185501;0.07669290900230408;0.02223420888185501;0.025367794558405876;0.11225976049900055;0.025367794558405876
49;0.022178804501891136;0.07713226974010468;0.022178804501891136;0.024461349472403526;0.10343921184539795;0.024461349472403526
50;0.022174663841724396;0.0763024389743805;0.022174663841724396;0.025317328050732613;0.1115313246846199;0.025317328050732613
51;0.022158872336149216;0.07622826844453812;0.022158872336149216;0.02524278312921524;0.11087951809167862;0.02524278312921524
52;0.022150203585624695;0.07666029036045074;0.022150203585624695;0.02515794336795807;0.10994335263967514;0.02515794336795807
53;0.022066807374358177;0.07564148306846619;0.022066807374358177;0.026740599423646927;0.12243295460939407;0.026740599423646927
54;0.021975090727210045;0.07583672553300858;0.021975090727210045;0.027032706886529922;0.12444057315587997;0.027032706886529922
55;0.021902140229940414;0.07583803683519363;0.021902140229940414;0.02673369273543358;0.12245971709489822;0.02673369273543358
56;0.02189403772354126;0.0752262994647026;0.02189403772354126;0.02734522335231304;0.12650392949581146;0.02734522335231304
57;0.021870769560337067;0.07526661455631256;0.021870769560337067;0.02720843255519867;0.12597961723804474;0.02720843255519867
58;0.02185344137251377;0.07530760020017624;0.02185344137251377;0.02782767452299595;0.1298205405473709;0.02782767452299595
59;0.021807173267006874;0.07536226511001587;0.021807173267006874;0.02741747349500656;0.12750212848186493;0.02741747349500656
60;0.021898100152611732;0.07600593566894531;0.021898100152611732;0.026610488072037697;0.12218713015317917;0.026610488072037697
61;0.021787181496620178;0.07476004213094711;0.021787181496620178;0.028039075434207916;0.13124603033065796;0.028039075434207916
62;0.021713566035032272;0.07459888607263565;0.021713566035032272;0.028228525072336197;0.1324167400598526;0.028228525072336197
63;0.02164151892066002;0.07415605336427689;0.02164151892066002;0.029401149600744247;0.13873736560344696;0.029401149600744247
64;0.02163412794470787;0.0747239738702774;0.02163412794470787;0.028877563774585724;0.13605999946594238;0.028877563774585724
65;0.021654188632965088;0.0740148201584816;0.021654188632965088;0.029129019007086754;0.13737696409225464;0.029129019007086754
66;0.021520646288990974;0.073870450258255;0.021520646288990974;0.029241714626550674;0.13818319141864777;0.029241714626550674
67;0.021567199379205704;0.07369953393936157;0.021567199379205704;0.02994316816329956;0.14177455008029938;0.02994316816329956
68;0.021547328680753708;0.0740291029214859;0.021547328680753708;0.02982429787516594;0.14139653742313385;0.02982429787516594
69;0.021453360095620155;0.07291404902935028;0.021453360095620155;0.03117804229259491;0.14776718616485596;0.03117804229259491
70;0.021348070353269577;0.0734376385807991;0.021348070353269577;0.03172674402594566;0.15031780302524567;0.03172674402594566
71;0.02131877839565277;0.0732557624578476;0.02131877839565277;0.03285946696996689;0.15520352125167847;0.03285946696996689
72;0.021455684676766396;0.074191153049469;0.021455684676766396;0.030895281583070755;0.14690552651882172;0.030895281583070755
73;0.02134093828499317;0.07271331548690796;0.02134093828499317;0.033922646194696426;0.15944041311740875;0.033922646194696426
74;0.02114292047917843;0.07235419005155563;0.02114292047917843;0.03477814793586731;0.16290581226348877;0.03477814793586731
75;0.021140702068805695;0.072976253926754;0.021140702068805695;0.03422453626990318;0.1610683649778366;0.03422453626990318
76;0.021172352135181427;0.07310120761394501;0.021172352135181427;0.03400595113635063;0.16021010279655457;0.03400595113635063
77;0.021004527807235718;0.07218172401189804;0.021004527807235718;0.03502565249800682;0.1641479879617691;0.03502565249800682
78;0.02100507728755474;0.07289071381092072;0.02100507728755474;0.035505782812833786;0.16595415771007538;0.035505782812833786
79;0.020786821842193604;0.07199525088071823;0.020786821842193604;0.03831545636057854;0.17572079598903656;0.03831545636057854
80;0.02088812179863453;0.07214014232158661;0.02088812179863453;0.03966178745031357;0.18005657196044922;0.03966178745031357
81;0.020785333588719368;0.0723358690738678;0.020785333588719368;0.038197264075279236;0.17549656331539154;0.038197264075279236
82;0.020733535289764404;0.07154291123151779;0.020733535289764404;0.041031524538993835;0.18446104228496552;0.041031524538993835
83;0.02074511907994747;0.07229773700237274;0.02074511907994747;0.04074233025312424;0.18367642164230347;0.04074233025312424
84;0.02067645825445652;0.07141239196062088;0.02067645825445652;0.042914051562547684;0.19018550217151642;0.042914051562547684
85;0.02065187506377697;0.07205672562122345;0.02065187506377697;0.041763558983802795;0.18690061569213867;0.041763558983802795
86;0.020797865465283394;0.07181935757398605;0.020797865465283394;0.043124862015247345;0.19088047742843628;0.043124862015247345
87;0.020408468320965767;0.0707143023610115;0.020408468320965767;0.04443282261490822;0.19470033049583435;0.04443282261490822
88;0.020364345982670784;0.0706840381026268;0.020364345982670784;0.04527561366558075;0.19713227450847626;0.04527561366558075
89;0.02032022923231125;0.07053739577531815;0.02032022923231125;0.04556034877896309;0.19795632362365723;0.04556034877896309
90;0.020523546263575554;0.07149963080883026;0.020523546263575554;0.0446648932993412;0.19554683566093445;0.0446648932993412
91;0.020402148365974426;0.07084211707115173;0.020402148365974426;0.046293023973703384;0.20000261068344116;0.046293023973703384
92;0.02027929201722145;0.07067763060331345;0.02027929201722145;0.04635488614439964;0.20026853680610657;0.04635488614439964
93;0.020514430478215218;0.07149793207645416;0.020514430478215218;0.048374760895967484;0.2056506872177124;0.048374760895967484
94;0.020401611924171448;0.07134313881397247;0.020401611924171448;0.04750839248299599;0.20340900123119354;0.04750839248299599
95;0.02033879980444908;0.07059001922607422;0.02033879980444908;0.04830557852983475;0.20553013682365417;0.04830557852983475
96;0.020304985344409943;0.07108492404222488;0.020304985344409943;0.046492185443639755;0.20077386498451233;0.046492185443639755
97;0.020077642053365707;0.0699569508433342;0.020077642053365707;0.04953888803720474;0.20875360071659088;0.04953888803720474
98;0.02014934830367565;0.07039807736873627;0.02014934830367565;0.05204882472753525;0.21506443619728088;0.05204882472753525
99;0.020134063437581062;0.07062846422195435;0.020134063437581062;0.05362863466143608;0.21889866888523102;0.05362863466143608
100;0.020122259855270386;0.07083640992641449;0.020122259855270386;0.05203544348478317;0.21506018936634064;0.05203544348478317
101;0.01991160959005356;0.06980812549591064;0.01991160959005356;0.053249817341566086;0.2180306315422058;0.053249817341566086
102;0.01990327425301075;0.06942109763622284;0.01990327425301075;0.05417676270008087;0.22025536000728607;0.05417676270008087
103;0.01984766311943531;0.0701674371957779;0.01984766311943531;0.054552603513002396;0.2211628258228302;0.054552603513002396
104;0.019937852397561073;0.07015013694763184;0.019937852397561073;0.05415775626897812;0.22023862600326538;0.05415775626897812
105;0.019921686500310898;0.07008788734674454;0.019921686500310898;0.05463917553424835;0.22138147056102753;0.05463917553424835
106;0.01976168341934681;0.06980635225772858;0.01976168341934681;0.05605059862136841;0.224685937166214;0.05605059862136841
107;0.019899358972907066;0.07007791101932526;0.019899358972907066;0.057633671909570694;0.2283095419406891;0.057633671909570694
108;0.019487634301185608;0.0684589073061943;0.019487634301185608;0.0581701323390007;0.22951765358448029;0.0581701323390007
109;0.01946408674120903;0.06896664202213287;0.01946408674120903;0.05921411141753197;0.23185798525810242;0.05921411141753197
110;0.019581232219934464;0.07013007998466492;0.019581232219934464;0.060085199773311615;0.2337885946035385;0.060085199773311615
111;0.01966390386223793;0.07016244530677795;0.01966390386223793;0.06021154671907425;0.23407265543937683;0.06021154671907425
112;0.019740266725420952;0.06955656409263611;0.019740266725420952;0.059468477964401245;0.2324240803718567;0.059468477964401245
113;0.01964736171066761;0.06976605951786041;0.01964736171066761;0.058855053037405014;0.23105944693088531;0.058855053037405014
114;0.019563520327210426;0.06978754699230194;0.019563520327210426;0.06239841505885124;0.2388385534286499;0.06239841505885124
115;0.019616393372416496;0.06978751718997955;0.019616393372416496;0.06288933008909225;0.23989181220531464;0.06288933008909225
116;0.019645916298031807;0.06973855197429657;0.019645916298031807;0.0646597295999527;0.24365171790122986;0.0646597295999527
117;0.019773367792367935;0.07051181048154831;0.019773367792367935;0.060575854033231735;0.2348686158657074;0.060575854033231735
118;0.01953020878136158;0.06874106079339981;0.01953020878136158;0.06274840980768204;0.2395859956741333;0.06274840980768204
119;0.019460733979940414;0.06984469294548035;0.019460733979940414;0.0632314383983612;0.24061767756938934;0.0632314383983612
120;0.019537299871444702;0.06935066729784012;0.019537299871444702;0.06195775792002678;0.2378724217414856;0.06195775792002678
121;0.019463716074824333;0.06967910379171371;0.019463716074824333;0.06219744682312012;0.23838919401168823;0.06219744682312012
122;0.019585836678743362;0.06966109573841095;0.019585836678743362;0.06621401011943817;0.24686546623706818;0.06621401011943817
123;0.01922781951725483;0.06984123587608337;0.01922781951725483;0.06326909363269806;0.24066227674484253;0.06326909363269806
124;0.019479991868138313;0.0687728077173233;0.019479991868138313;0.06758761405944824;0.249672070145607;0.06758761405944824
125;0.01920078508555889;0.0692991316318512;0.01920078508555889;0.06555074453353882;0.24545973539352417;0.06555074453353882
126;0.019296973943710327;0.06919271498918533;0.019296973943710327;0.06704439222812653;0.24853211641311646;0.06704439222812653
127;0.019101159647107124;0.06919372081756592;0.019101159647107124;0.06879977881908417;0.25207915902137756;0.06879977881908417
128;0.018998121842741966;0.0689164325594902;0.018998121842741966;0.0704205259680748;0.2552873492240906;0.0704205259680748
129;0.018971245735883713;0.06866304576396942;0.018971245735883713;0.07082096487283707;0.25606226921081543;0.07082096487283707
130;0.019253766164183617;0.06903323531150818;0.019253766164183617;0.07237573713064194;0.25910118222236633;0.07237573713064194
131;0.01898203045129776;0.0686708614230156;0.01898203045129776;0.07276024669408798;0.2598496377468109;0.07276024669408798
132;0.019130172207951546;0.06884244829416275;0.019130172207951546;0.07206255197525024;0.2584403455257416;0.07206255197525024
133;0.01915138214826584;0.06892579793930054;0.01915138214826584;0.07286087423563004;0.26000043749809265;0.07286087423563004
134;0.018750961869955063;0.06819817423820496;0.018750961869955063;0.07097187638282776;0.25626200437545776;0.07097187638282776
135;0.019135702401399612;0.06888127326965332;0.019135702401399612;0.06853994727134705;0.251411497592926;0.06853994727134705
136;0.01897546648979187;0.06857942789793015;0.01897546648979187;0.0711456760764122;0.2565889060497284;0.0711456760764122
137;0.019083991646766663;0.06837993115186691;0.019083991646766663;0.06847473978996277;0.2512228190898895;0.06847473978996277
138;0.019114788621664047;0.06913673132658005;0.019114788621664047;0.07106385380029678;0.2564166784286499;0.07106385380029678
139;0.01899496465921402;0.06922709196805954;0.01899496465921402;0.07108517736196518;0.25643888115882874;0.07108517736196518
140;0.019247153773903847;0.07052428275346756;0.019247153773903847;0.07246449589729309;0.2591320276260376;0.07246449589729309
141;0.018824832513928413;0.06956750154495239;0.018824832513928413;0.07584943622350693;0.26559099555015564;0.07584943622350693
142;0.01881270483136177;0.06930135935544968;0.01881270483136177;0.07406344264745712;0.2621751129627228;0.07406344264745712
143;0.018671663478016853;0.06809855997562408;0.018671663478016853;0.07383032888174057;0.2616972029209137;0.07383032888174057
144;0.018552429974079132;0.06782665103673935;0.018552429974079132;0.07686540484428406;0.2674495577812195;0.07686540484428406
145;0.018817072734236717;0.06819397211074829;0.018817072734236717;0.0781719833612442;0.2698901295661926;0.0781719833612442
146;0.018921343609690666;0.06862468272447586;0.018921343609690666;0.0797879621386528;0.2728528380393982;0.0797879621386528
147;0.01885027252137661;0.06839366257190704;0.01885027252137661;0.08425022661685944;0.2809324860572815;0.08425022661685944
148;0.018657032400369644;0.06880102306604385;0.018657032400369644;0.07965511828660965;0.2725825309753418;0.07965511828660965
149;0.018477685749530792;0.06805000454187393;0.018477685749530792;0.08061669021844864;0.2743251621723175;0.08061669021844864
150;0.018970821052789688;0.06871580332517624;0.018970821052789688;0.08398169279098511;0.28043270111083984;0.08398169279098511
151;0.018705690279603004;0.06796425580978394;0.018705690279603004;0.07902127504348755;0.2713753879070282;0.07902127504348755
152;0.01856013759970665;0.06764105707406998;0.01856013759970665;0.08160526305437088;0.2761007249355316;0.08160526305437088
153;0.018799014389514923;0.06783083826303482;0.018799014389514923;0.07780465483665466;0.26907894015312195;0.07780465483665466
154;0.0186715517193079;0.06760958582162857;0.0186715517193079;0.08375991880893707;0.27999967336654663;0.08375991880893707
155;0.018431732431054115;0.06842920184135437;0.018431732431054115;0.08042721450328827;0.2739345133304596;0.08042721450328827
156;0.018963521346449852;0.06839686632156372;0.018963521346449852;0.0789809376001358;0.2712914049625397;0.0789809376001358
157;0.018520796671509743;0.0679774135351181;0.018520796671509743;0.0808575302362442;0.2747041583061218;0.0808575302362442
158;0.018630487844347954;0.06751089543104172;0.018630487844347954;0.08107922226190567;0.27510371804237366;0.08107922226190567
159;0.01869901642203331;0.06821861863136292;0.01869901642203331;0.07887813448905945;0.2710057199001312;0.07887813448905945
160;0.018895452842116356;0.06892269849777222;0.018895452842116356;0.08066500723361969;0.274304062128067;0.08066500723361969
161;0.01866080053150654;0.06919877976179123;0.01866080053150654;0.08097753673791885;0.27487727999687195;0.08097753673791885
162;0.018624812364578247;0.06760108470916748;0.018624812364578247;0.08104851096868515;0.27501699328422546;0.08104851096868515
163;0.018328603357076645;0.06660204380750656;0.018328603357076645;0.08200468122959137;0.2767573297023773;0.08200468122959137
164;0.018371475860476494;0.06729760020971298;0.018371475860476494;0.08376092463731766;0.2799268066883087;0.08376092463731766
165;0.018389740958809853;0.06752599030733109;0.018389740958809853;0.08460095524787903;0.281419575214386;0.08460095524787903
166;0.018217014148831367;0.06727554649114609;0.018217014148831367;0.08189446479082108;0.27652785181999207;0.08189446479082108
167;0.018494538962841034;0.06701628863811493;0.018494538962841034;0.08512607216835022;0.2823169231414795;0.08512607216835022
168;0.018470851704478264;0.06868662685155869;0.018470851704478264;0.08101075887680054;0.27485784888267517;0.08101075887680054
169;0.018756382167339325;0.0680961012840271;0.018756382167339325;0.08318304270505905;0.2788569927215576;0.08318304270505905
170;0.018527718260884285;0.06753680109977722;0.018527718260884285;0.0821426585316658;0.27698296308517456;0.0821426585316658
171;0.01862597092986107;0.06799385696649551;0.01862597092986107;0.08282086998224258;0.27820152044296265;0.08282086998224258
172;0.018156901001930237;0.06730623543262482;0.018156901001930237;0.0830964595079422;0.27867481112480164;0.0830964595079422
173;0.018292393535375595;0.06742354482412338;0.018292393535375595;0.08482030779123306;0.28175196051597595;0.08482030779123306
174;0.01843399927020073;0.06729467213153839;0.01843399927020073;0.08573070168495178;0.2833252549171448;0.08573070168495178
175;0.018444932997226715;0.06741499900817871;0.018444932997226715;0.08396966010332108;0.28017109632492065;0.08396966010332108
176;0.01881149783730507;0.06901533901691437;0.01881149783730507;0.08081211149692535;0.2744678258895874;0.08081211149692535
177;0.018407929688692093;0.06874363869428635;0.018407929688692093;0.08418755978345871;0.2805365025997162;0.08418755978345871
178;0.01857553794980049;0.06879178434610367;0.01857553794980049;0.08523872494697571;0.2824510335922241;0.08523872494697571
179;0.018543124198913574;0.06761614978313446;0.018543124198913574;0.0807608813047409;0.2743520438671112;0.0807608813047409
180;0.01857626996934414;0.0672302097082138;0.01857626996934414;0.08485165238380432;0.2817292809486389;0.08485165238380432
181;0.01838821731507778;0.06807820498943329;0.01838821731507778;0.08754313737154007;0.2864929735660553;0.08754313737154007
182;0.01851138286292553;0.0688781887292862;0.01851138286292553;0.08430609852075577;0.2807304561138153;0.08430609852075577
183;0.018534017726778984;0.06784772127866745;0.018534017726778984;0.08311549574136734;0.2785547077655792;0.08311549574136734
184;0.018462281674146652;0.06768521666526794;0.018462281674146652;0.08077660202980042;0.2743268609046936;0.08077660202980042
185;0.018245799466967583;0.06683945655822754;0.018245799466967583;0.08421947062015533;0.2805679738521576;0.08421947062015533
186;0.018401427194476128;0.06771940737962723;0.018401427194476128;0.08109511435031891;0.2748640477657318;0.08109511435031891
187;0.017965273931622505;0.06630287319421768;0.017965273931622505;0.08448240906000137;0.2810077965259552;0.08448240906000137
188;0.018537944182753563;0.06873436272144318;0.018537944182753563;0.08506225794553757;0.2820398509502411;0.08506225794553757
189;0.01823197491466999;0.0667969137430191;0.01823197491466999;0.08492589741945267;0.28180450201034546;0.08492589741945267
190;0.01772804744541645;0.06652567535638809;0.01772804744541645;0.08639571070671082;0.2843511402606964;0.08639571070671082
191;0.017974816262722015;0.06677500903606415;0.017974816262722015;0.08984692394733429;0.2903715670108795;0.08984692394733429
192;0.018821150064468384;0.06849401444196701;0.018821150064468384;0.08489950746297836;0.2816968560218811;0.08489950746297836
193;0.01794608123600483;0.06702764332294464;0.01794608123600483;0.08933492749929428;0.28948503732681274;0.08933492749929428
194;0.018140049651265144;0.067121721804142;0.018140049651265144;0.08866147696971893;0.2882899343967438;0.08866147696971893
195;0.01818961650133133;0.06732355058193207;0.01818961650133133;0.0932694599032402;0.2961922585964203;0.0932694599032402
196;0.017926177009940147;0.06695698201656342;0.017926177009940147;0.09386754035949707;0.29717597365379333;0.09386754035949707
197;0.018289566040039062;0.06851612031459808;0.018289566040039062;0.0954512283205986;0.29976922273635864;0.0954512283205986
198;0.017989691346883774;0.06722153723239899;0.017989691346883774;0.0950474664568901;0.29907920956611633;0.0950474664568901
199;0.017956867814064026;0.06666415929794312;0.017956867814064026;0.09350483119487762;0.2964673340320587;0.09350483119487762
